00000000000000000000000001010000
00000000000000000000000001000000
00000000000000000000000000110000
00000000000000000000000000100000
00000000000000000000000000010000
00000000000000000000000000100000
00000000000000000000000000110000
00000000000000000000000001000000
00000000000000000000000001010000
00000000000000000000000110010000
00000000000000000000000110010000
00000000000000000000000110010000
00000000000000000000000110010000
00000000000000000000000110010000
00000000000000000000000110010000
00000000000000000000000000000000
00000000000000000000000000000000
00000000000000000000000000000000
00000000000000000000000000000000
00000000000000000000000000000000
00000000000000000000000000000000
00000000000000000000000000000000
00000000000000000000000000000000
00000000000000000000000000000000
00000000000000000000000000000000
00000000000000000000000000000000
00000000000000000000000000000000
00000000000000000000000000000000
00000000000000000000000000000000
00000000000000000000000000000000
00000000000000000000000000000000
00000000000000000000000000000000
00000000000000000000000000000000
00000000000000000000000000000000
00000000000000000000000000000000
00000000000000000000000000000000
00000000000000000000000000000000
