verilog xil_defaultlib --include "../../../ipstatic" \
"../../../../TTC_PICOZED30.srcs/sources_1/ip/clk_wiz_200to80_40/clk_wiz_200to80_40_clk_wiz.v" \
"../../../../TTC_PICOZED30.srcs/sources_1/ip/clk_wiz_200to80_40/clk_wiz_200to80_40.v" \

verilog xil_defaultlib "glbl.v"

nosort
