
*** Running vivado
    with args -log TTC_PICOZED_BD_ttc_picozed_interface_0_0.vds -m64 -product Vivado -mode batch -messageDb vivado.pb -notrace -source TTC_PICOZED_BD_ttc_picozed_interface_0_0.tcl


****** Vivado v2018.1 (64-bit)
  **** SW Build 2188600 on Wed Apr  4 18:39:19 MDT 2018
  **** IP Build 2185939 on Wed Apr  4 20:55:05 MDT 2018
    ** Copyright 1986-2018 Xilinx, Inc. All Rights Reserved.

source TTC_PICOZED_BD_ttc_picozed_interface_0_0.tcl -notrace
Command: synth_design -top TTC_PICOZED_BD_ttc_picozed_interface_0_0 -part xc7z030sbg485-1 -mode out_of_context
Starting synth_design
Attempting to get a license for feature 'Synthesis' and/or device 'xc7z030'
INFO: [Common 17-349] Got license for feature 'Synthesis' and/or device 'xc7z030'
INFO: Launching helper process for spawning children vivado processes
INFO: Helper process launched with PID 13194 
---------------------------------------------------------------------------------
Starting RTL Elaboration : Time (s): cpu = 00:00:07 ; elapsed = 00:00:08 . Memory (MB): peak = 1354.918 ; gain = 89.000 ; free physical = 497 ; free virtual = 2773
---------------------------------------------------------------------------------
INFO: [Synth 8-638] synthesizing module 'TTC_PICOZED_BD_ttc_picozed_interface_0_0' [/home/mesfin/felix/mgebyehu/test_zynq_repo/zynq_lab_ttc/firmware/projects_custem/TTC_PICOZED30/TTC_PICOZED30.srcs/sources_1/bd/TTC_PICOZED_BD/ip/TTC_PICOZED_BD_ttc_picozed_interface_0_0/synth/TTC_PICOZED_BD_ttc_picozed_interface_0_0.vhd:90]
	Parameter C_S00_AXI_DATA_WIDTH bound to: 32 - type: integer 
	Parameter C_S00_AXI_ADDR_WIDTH bound to: 6 - type: integer 
INFO: [Synth 8-3491] module 'ttc_picozed_interface_v1_0' declared at '/home/mesfin/felix/mgebyehu/test_zynq_repo/zynq_lab_ttc/firmware/projects_custem/TTC_PICOZED30/TTC_PICOZED30.srcs/sources_1/bd/TTC_PICOZED_BD/ipshared/bae1/hdl/ttc_picozed_interface_v1_0.vhd:5' bound to instance 'U0' of component 'ttc_picozed_interface_v1_0' [/home/mesfin/felix/mgebyehu/test_zynq_repo/zynq_lab_ttc/firmware/projects_custem/TTC_PICOZED30/TTC_PICOZED30.srcs/sources_1/bd/TTC_PICOZED_BD/ip/TTC_PICOZED_BD_ttc_picozed_interface_0_0/synth/TTC_PICOZED_BD_ttc_picozed_interface_0_0.vhd:162]
INFO: [Synth 8-638] synthesizing module 'ttc_picozed_interface_v1_0' [/home/mesfin/felix/mgebyehu/test_zynq_repo/zynq_lab_ttc/firmware/projects_custem/TTC_PICOZED30/TTC_PICOZED30.srcs/sources_1/bd/TTC_PICOZED_BD/ipshared/bae1/hdl/ttc_picozed_interface_v1_0.vhd:56]
	Parameter C_S00_AXI_DATA_WIDTH bound to: 32 - type: integer 
	Parameter C_S00_AXI_ADDR_WIDTH bound to: 6 - type: integer 
	Parameter C_S_AXI_DATA_WIDTH bound to: 32 - type: integer 
	Parameter C_S_AXI_ADDR_WIDTH bound to: 6 - type: integer 
INFO: [Synth 8-3491] module 'ttc_picozed_interface_v1_0_S00_AXI' declared at '/home/mesfin/felix/mgebyehu/test_zynq_repo/zynq_lab_ttc/firmware/projects_custem/TTC_PICOZED30/TTC_PICOZED30.srcs/sources_1/bd/TTC_PICOZED_BD/ipshared/bae1/hdl/ttc_picozed_interface_v1_0_S00_AXI.vhd:5' bound to instance 'ttc_picozed_interface_v1_0_S00_AXI_inst' of component 'ttc_picozed_interface_v1_0_S00_AXI' [/home/mesfin/felix/mgebyehu/test_zynq_repo/zynq_lab_ttc/firmware/projects_custem/TTC_PICOZED30/TTC_PICOZED30.srcs/sources_1/bd/TTC_PICOZED_BD/ipshared/bae1/hdl/ttc_picozed_interface_v1_0.vhd:100]
INFO: [Synth 8-638] synthesizing module 'ttc_picozed_interface_v1_0_S00_AXI' [/home/mesfin/felix/mgebyehu/test_zynq_repo/zynq_lab_ttc/firmware/projects_custem/TTC_PICOZED30/TTC_PICOZED30.srcs/sources_1/bd/TTC_PICOZED_BD/ipshared/bae1/hdl/ttc_picozed_interface_v1_0_S00_AXI.vhd:93]
	Parameter C_S_AXI_DATA_WIDTH bound to: 32 - type: integer 
	Parameter C_S_AXI_ADDR_WIDTH bound to: 6 - type: integer 
INFO: [Synth 8-226] default block is never used [/home/mesfin/felix/mgebyehu/test_zynq_repo/zynq_lab_ttc/firmware/projects_custem/TTC_PICOZED30/TTC_PICOZED30.srcs/sources_1/bd/TTC_PICOZED_BD/ipshared/bae1/hdl/ttc_picozed_interface_v1_0_S00_AXI.vhd:247]
WARNING: [Synth 8-614] signal 'BUSY_in' is read in the process but is not in the sensitivity list [/home/mesfin/felix/mgebyehu/test_zynq_repo/zynq_lab_ttc/firmware/projects_custem/TTC_PICOZED30/TTC_PICOZED30.srcs/sources_1/bd/TTC_PICOZED_BD/ipshared/bae1/hdl/ttc_picozed_interface_v1_0_S00_AXI.vhd:480]
WARNING: [Synth 8-6014] Unused sequential element loc_addr_reg was removed.  [/home/mesfin/felix/mgebyehu/test_zynq_repo/zynq_lab_ttc/firmware/projects_custem/TTC_PICOZED30/TTC_PICOZED30.srcs/sources_1/bd/TTC_PICOZED_BD/ipshared/bae1/hdl/ttc_picozed_interface_v1_0_S00_AXI.vhd:245]
INFO: [Synth 8-256] done synthesizing module 'ttc_picozed_interface_v1_0_S00_AXI' (1#1) [/home/mesfin/felix/mgebyehu/test_zynq_repo/zynq_lab_ttc/firmware/projects_custem/TTC_PICOZED30/TTC_PICOZED30.srcs/sources_1/bd/TTC_PICOZED_BD/ipshared/bae1/hdl/ttc_picozed_interface_v1_0_S00_AXI.vhd:93]
INFO: [Synth 8-256] done synthesizing module 'ttc_picozed_interface_v1_0' (2#1) [/home/mesfin/felix/mgebyehu/test_zynq_repo/zynq_lab_ttc/firmware/projects_custem/TTC_PICOZED30/TTC_PICOZED30.srcs/sources_1/bd/TTC_PICOZED_BD/ipshared/bae1/hdl/ttc_picozed_interface_v1_0.vhd:56]
INFO: [Synth 8-256] done synthesizing module 'TTC_PICOZED_BD_ttc_picozed_interface_0_0' (3#1) [/home/mesfin/felix/mgebyehu/test_zynq_repo/zynq_lab_ttc/firmware/projects_custem/TTC_PICOZED30/TTC_PICOZED30.srcs/sources_1/bd/TTC_PICOZED_BD/ip/TTC_PICOZED_BD_ttc_picozed_interface_0_0/synth/TTC_PICOZED_BD_ttc_picozed_interface_0_0.vhd:90]
WARNING: [Synth 8-3331] design ttc_picozed_interface_v1_0_S00_AXI has unconnected port S_AXI_AWPROT[2]
WARNING: [Synth 8-3331] design ttc_picozed_interface_v1_0_S00_AXI has unconnected port S_AXI_AWPROT[1]
WARNING: [Synth 8-3331] design ttc_picozed_interface_v1_0_S00_AXI has unconnected port S_AXI_AWPROT[0]
WARNING: [Synth 8-3331] design ttc_picozed_interface_v1_0_S00_AXI has unconnected port S_AXI_ARPROT[2]
WARNING: [Synth 8-3331] design ttc_picozed_interface_v1_0_S00_AXI has unconnected port S_AXI_ARPROT[1]
WARNING: [Synth 8-3331] design ttc_picozed_interface_v1_0_S00_AXI has unconnected port S_AXI_ARPROT[0]
---------------------------------------------------------------------------------
Finished RTL Elaboration : Time (s): cpu = 00:00:08 ; elapsed = 00:00:09 . Memory (MB): peak = 1398.527 ; gain = 132.609 ; free physical = 472 ; free virtual = 2765
---------------------------------------------------------------------------------

Report Check Netlist: 
+------+------------------+-------+---------+-------+------------------+
|      |Item              |Errors |Warnings |Status |Description       |
+------+------------------+-------+---------+-------+------------------+
|1     |multi_driven_nets |      0|        0|Passed |Multi driven nets |
+------+------------------+-------+---------+-------+------------------+
---------------------------------------------------------------------------------
Start Handling Custom Attributes
---------------------------------------------------------------------------------
---------------------------------------------------------------------------------
Finished Handling Custom Attributes : Time (s): cpu = 00:00:08 ; elapsed = 00:00:10 . Memory (MB): peak = 1398.527 ; gain = 132.609 ; free physical = 465 ; free virtual = 2757
---------------------------------------------------------------------------------
---------------------------------------------------------------------------------
Finished RTL Optimization Phase 1 : Time (s): cpu = 00:00:08 ; elapsed = 00:00:10 . Memory (MB): peak = 1398.527 ; gain = 132.609 ; free physical = 464 ; free virtual = 2757
---------------------------------------------------------------------------------
INFO: [Device 21-403] Loading part xc7z030sbg485-1
INFO: [Project 1-570] Preparing netlist for logic optimization

Processing XDC Constraints
Initializing timing engine
Completed Processing XDC Constraints

INFO: [Project 1-111] Unisim Transformation Summary:
No Unisim elements were transformed.

Constraint Validation Runtime : Time (s): cpu = 00:00:00.03 ; elapsed = 00:00:00.03 . Memory (MB): peak = 1752.039 ; gain = 0.000 ; free physical = 221 ; free virtual = 2380
---------------------------------------------------------------------------------
Finished Constraint Validation : Time (s): cpu = 00:00:24 ; elapsed = 00:00:37 . Memory (MB): peak = 1752.039 ; gain = 486.121 ; free physical = 170 ; free virtual = 2330
---------------------------------------------------------------------------------
---------------------------------------------------------------------------------
Start Loading Part and Timing Information
---------------------------------------------------------------------------------
Loading part: xc7z030sbg485-1
---------------------------------------------------------------------------------
Finished Loading Part and Timing Information : Time (s): cpu = 00:00:24 ; elapsed = 00:00:37 . Memory (MB): peak = 1752.039 ; gain = 486.121 ; free physical = 170 ; free virtual = 2330
---------------------------------------------------------------------------------
---------------------------------------------------------------------------------
Start Applying 'set_property' XDC Constraints
---------------------------------------------------------------------------------
---------------------------------------------------------------------------------
Finished applying 'set_property' XDC Constraints : Time (s): cpu = 00:00:24 ; elapsed = 00:00:37 . Memory (MB): peak = 1752.039 ; gain = 486.121 ; free physical = 171 ; free virtual = 2331
---------------------------------------------------------------------------------
---------------------------------------------------------------------------------
Finished RTL Optimization Phase 2 : Time (s): cpu = 00:00:24 ; elapsed = 00:00:37 . Memory (MB): peak = 1752.039 ; gain = 486.121 ; free physical = 161 ; free virtual = 2322
---------------------------------------------------------------------------------

Report RTL Partitions: 
+-+--------------+------------+----------+
| |RTL Partition |Replication |Instances |
+-+--------------+------------+----------+
+-+--------------+------------+----------+
---------------------------------------------------------------------------------
Start RTL Component Statistics 
---------------------------------------------------------------------------------
Detailed RTL Component Info : 
+---Registers : 
	               32 Bit    Registers := 8     
	                6 Bit    Registers := 2     
	                2 Bit    Registers := 2     
	                1 Bit    Registers := 6     
+---Muxes : 
	   2 Input     32 Bit        Muxes := 8     
	  16 Input     32 Bit        Muxes := 7     
	   2 Input      1 Bit        Muxes := 5     
---------------------------------------------------------------------------------
Finished RTL Component Statistics 
---------------------------------------------------------------------------------
---------------------------------------------------------------------------------
Start RTL Hierarchical Component Statistics 
---------------------------------------------------------------------------------
Hierarchical RTL Component report 
Module ttc_picozed_interface_v1_0_S00_AXI 
Detailed RTL Component Info : 
+---Registers : 
	               32 Bit    Registers := 8     
	                6 Bit    Registers := 2     
	                2 Bit    Registers := 2     
	                1 Bit    Registers := 6     
+---Muxes : 
	   2 Input     32 Bit        Muxes := 8     
	  16 Input     32 Bit        Muxes := 7     
	   2 Input      1 Bit        Muxes := 5     
---------------------------------------------------------------------------------
Finished RTL Hierarchical Component Statistics
---------------------------------------------------------------------------------
---------------------------------------------------------------------------------
Start Part Resource Summary
---------------------------------------------------------------------------------
Part Resources:
DSPs: 400 (col length:80)
BRAMs: 530 (col length: RAMB18 80 RAMB36 40)
---------------------------------------------------------------------------------
Finished Part Resource Summary
---------------------------------------------------------------------------------
---------------------------------------------------------------------------------
Start Cross Boundary and Area Optimization
---------------------------------------------------------------------------------
Warning: Parallel synthesis criteria is not met 
WARNING: [Synth 8-3331] design TTC_PICOZED_BD_ttc_picozed_interface_0_0 has unconnected port s00_axi_awprot[2]
WARNING: [Synth 8-3331] design TTC_PICOZED_BD_ttc_picozed_interface_0_0 has unconnected port s00_axi_awprot[1]
WARNING: [Synth 8-3331] design TTC_PICOZED_BD_ttc_picozed_interface_0_0 has unconnected port s00_axi_awprot[0]
WARNING: [Synth 8-3331] design TTC_PICOZED_BD_ttc_picozed_interface_0_0 has unconnected port s00_axi_arprot[2]
WARNING: [Synth 8-3331] design TTC_PICOZED_BD_ttc_picozed_interface_0_0 has unconnected port s00_axi_arprot[1]
WARNING: [Synth 8-3331] design TTC_PICOZED_BD_ttc_picozed_interface_0_0 has unconnected port s00_axi_arprot[0]
INFO: [Synth 8-3333] propagating constant 1 across sequential element (\U0/ttc_picozed_interface_v1_0_S00_AXI_inst/aw_en_reg )
INFO: [Synth 8-3886] merging instance 'U0/ttc_picozed_interface_v1_0_S00_AXI_inst/axi_rresp_reg[0]' (FDRE) to 'U0/ttc_picozed_interface_v1_0_S00_AXI_inst/axi_rresp_reg[1]'
INFO: [Synth 8-3333] propagating constant 0 across sequential element (\U0/ttc_picozed_interface_v1_0_S00_AXI_inst/axi_rresp_reg[1] )
INFO: [Synth 8-3886] merging instance 'U0/ttc_picozed_interface_v1_0_S00_AXI_inst/axi_bresp_reg[0]' (FDRE) to 'U0/ttc_picozed_interface_v1_0_S00_AXI_inst/axi_bresp_reg[1]'
INFO: [Synth 8-3333] propagating constant 0 across sequential element (\U0/ttc_picozed_interface_v1_0_S00_AXI_inst/axi_bresp_reg[1] )
INFO: [Synth 8-3332] Sequential element (U0/ttc_picozed_interface_v1_0_S00_AXI_inst/aw_en_reg) is unused and will be removed from module TTC_PICOZED_BD_ttc_picozed_interface_0_0.
INFO: [Synth 8-3332] Sequential element (U0/ttc_picozed_interface_v1_0_S00_AXI_inst/axi_awaddr_reg[1]) is unused and will be removed from module TTC_PICOZED_BD_ttc_picozed_interface_0_0.
INFO: [Synth 8-3332] Sequential element (U0/ttc_picozed_interface_v1_0_S00_AXI_inst/axi_awaddr_reg[0]) is unused and will be removed from module TTC_PICOZED_BD_ttc_picozed_interface_0_0.
INFO: [Synth 8-3332] Sequential element (U0/ttc_picozed_interface_v1_0_S00_AXI_inst/axi_bresp_reg[1]) is unused and will be removed from module TTC_PICOZED_BD_ttc_picozed_interface_0_0.
INFO: [Synth 8-3332] Sequential element (U0/ttc_picozed_interface_v1_0_S00_AXI_inst/axi_araddr_reg[1]) is unused and will be removed from module TTC_PICOZED_BD_ttc_picozed_interface_0_0.
INFO: [Synth 8-3332] Sequential element (U0/ttc_picozed_interface_v1_0_S00_AXI_inst/axi_araddr_reg[0]) is unused and will be removed from module TTC_PICOZED_BD_ttc_picozed_interface_0_0.
INFO: [Synth 8-3332] Sequential element (U0/ttc_picozed_interface_v1_0_S00_AXI_inst/axi_rresp_reg[1]) is unused and will be removed from module TTC_PICOZED_BD_ttc_picozed_interface_0_0.
---------------------------------------------------------------------------------
Finished Cross Boundary and Area Optimization : Time (s): cpu = 00:00:24 ; elapsed = 00:00:38 . Memory (MB): peak = 1752.039 ; gain = 486.121 ; free physical = 140 ; free virtual = 2302
---------------------------------------------------------------------------------

Report RTL Partitions: 
+-+--------------+------------+----------+
| |RTL Partition |Replication |Instances |
+-+--------------+------------+----------+
+-+--------------+------------+----------+
---------------------------------------------------------------------------------
Start Applying XDC Timing Constraints
---------------------------------------------------------------------------------
---------------------------------------------------------------------------------
Finished Applying XDC Timing Constraints : Time (s): cpu = 00:00:30 ; elapsed = 00:00:46 . Memory (MB): peak = 1752.039 ; gain = 486.121 ; free physical = 135 ; free virtual = 2238
---------------------------------------------------------------------------------
---------------------------------------------------------------------------------
Start Timing Optimization
---------------------------------------------------------------------------------
---------------------------------------------------------------------------------
Finished Timing Optimization : Time (s): cpu = 00:00:30 ; elapsed = 00:00:46 . Memory (MB): peak = 1752.039 ; gain = 486.121 ; free physical = 134 ; free virtual = 2237
---------------------------------------------------------------------------------

Report RTL Partitions: 
+-+--------------+------------+----------+
| |RTL Partition |Replication |Instances |
+-+--------------+------------+----------+
+-+--------------+------------+----------+
---------------------------------------------------------------------------------
Start Technology Mapping
---------------------------------------------------------------------------------
---------------------------------------------------------------------------------
Finished Technology Mapping : Time (s): cpu = 00:00:30 ; elapsed = 00:00:46 . Memory (MB): peak = 1752.039 ; gain = 486.121 ; free physical = 128 ; free virtual = 2231
---------------------------------------------------------------------------------

Report RTL Partitions: 
+-+--------------+------------+----------+
| |RTL Partition |Replication |Instances |
+-+--------------+------------+----------+
+-+--------------+------------+----------+
---------------------------------------------------------------------------------
Start IO Insertion
---------------------------------------------------------------------------------
---------------------------------------------------------------------------------
Start Flattening Before IO Insertion
---------------------------------------------------------------------------------
---------------------------------------------------------------------------------
Finished Flattening Before IO Insertion
---------------------------------------------------------------------------------
---------------------------------------------------------------------------------
Start Final Netlist Cleanup
---------------------------------------------------------------------------------
---------------------------------------------------------------------------------
Finished Final Netlist Cleanup
---------------------------------------------------------------------------------
---------------------------------------------------------------------------------
Finished IO Insertion : Time (s): cpu = 00:00:31 ; elapsed = 00:00:46 . Memory (MB): peak = 1752.039 ; gain = 486.121 ; free physical = 116 ; free virtual = 2192
---------------------------------------------------------------------------------

Report Check Netlist: 
+------+------------------+-------+---------+-------+------------------+
|      |Item              |Errors |Warnings |Status |Description       |
+------+------------------+-------+---------+-------+------------------+
|1     |multi_driven_nets |      0|        0|Passed |Multi driven nets |
+------+------------------+-------+---------+-------+------------------+
---------------------------------------------------------------------------------
Start Renaming Generated Instances
---------------------------------------------------------------------------------
---------------------------------------------------------------------------------
Finished Renaming Generated Instances : Time (s): cpu = 00:00:31 ; elapsed = 00:00:46 . Memory (MB): peak = 1752.039 ; gain = 486.121 ; free physical = 116 ; free virtual = 2192
---------------------------------------------------------------------------------

Report RTL Partitions: 
+-+--------------+------------+----------+
| |RTL Partition |Replication |Instances |
+-+--------------+------------+----------+
+-+--------------+------------+----------+
---------------------------------------------------------------------------------
Start Rebuilding User Hierarchy
---------------------------------------------------------------------------------
---------------------------------------------------------------------------------
Finished Rebuilding User Hierarchy : Time (s): cpu = 00:00:31 ; elapsed = 00:00:46 . Memory (MB): peak = 1752.039 ; gain = 486.121 ; free physical = 116 ; free virtual = 2192
---------------------------------------------------------------------------------
---------------------------------------------------------------------------------
Start Renaming Generated Ports
---------------------------------------------------------------------------------
---------------------------------------------------------------------------------
Finished Renaming Generated Ports : Time (s): cpu = 00:00:31 ; elapsed = 00:00:46 . Memory (MB): peak = 1752.039 ; gain = 486.121 ; free physical = 116 ; free virtual = 2192
---------------------------------------------------------------------------------
---------------------------------------------------------------------------------
Start Handling Custom Attributes
---------------------------------------------------------------------------------
---------------------------------------------------------------------------------
Finished Handling Custom Attributes : Time (s): cpu = 00:00:31 ; elapsed = 00:00:46 . Memory (MB): peak = 1752.039 ; gain = 486.121 ; free physical = 115 ; free virtual = 2191
---------------------------------------------------------------------------------
---------------------------------------------------------------------------------
Start Renaming Generated Nets
---------------------------------------------------------------------------------
---------------------------------------------------------------------------------
Finished Renaming Generated Nets : Time (s): cpu = 00:00:31 ; elapsed = 00:00:46 . Memory (MB): peak = 1752.039 ; gain = 486.121 ; free physical = 115 ; free virtual = 2191
---------------------------------------------------------------------------------
---------------------------------------------------------------------------------
Start Writing Synthesis Report
---------------------------------------------------------------------------------

Report BlackBoxes: 
+-+--------------+----------+
| |BlackBox name |Instances |
+-+--------------+----------+
+-+--------------+----------+

Report Cell Usage: 
+------+-----+------+
|      |Cell |Count |
+------+-----+------+
|1     |LUT1 |     1|
|2     |LUT2 |     1|
|3     |LUT3 |     3|
|4     |LUT4 |    34|
|5     |LUT5 |    31|
|6     |LUT6 |    62|
|7     |FDRE |   265|
|8     |FDSE |     4|
+------+-----+------+

Report Instance Areas: 
+------+--------------------------------------------+-----------------------------------+------+
|      |Instance                                    |Module                             |Cells |
+------+--------------------------------------------+-----------------------------------+------+
|1     |top                                         |                                   |   401|
|2     |  U0                                        |ttc_picozed_interface_v1_0         |   401|
|3     |    ttc_picozed_interface_v1_0_S00_AXI_inst |ttc_picozed_interface_v1_0_S00_AXI |   401|
+------+--------------------------------------------+-----------------------------------+------+
---------------------------------------------------------------------------------
Finished Writing Synthesis Report : Time (s): cpu = 00:00:31 ; elapsed = 00:00:46 . Memory (MB): peak = 1752.039 ; gain = 486.121 ; free physical = 115 ; free virtual = 2191
---------------------------------------------------------------------------------
Synthesis finished with 0 errors, 0 critical warnings and 6 warnings.
Synthesis Optimization Runtime : Time (s): cpu = 00:00:22 ; elapsed = 00:00:26 . Memory (MB): peak = 1752.039 ; gain = 132.609 ; free physical = 171 ; free virtual = 2247
Synthesis Optimization Complete : Time (s): cpu = 00:00:31 ; elapsed = 00:00:46 . Memory (MB): peak = 1752.047 ; gain = 486.121 ; free physical = 171 ; free virtual = 2247
INFO: [Project 1-571] Translating synthesized netlist
INFO: [Project 1-570] Preparing netlist for logic optimization
INFO: [Opt 31-138] Pushed 0 inverter(s) to 0 load pin(s).
INFO: [Project 1-111] Unisim Transformation Summary:
No Unisim elements were transformed.

INFO: [Common 17-83] Releasing license: Synthesis
30 Infos, 14 Warnings, 0 Critical Warnings and 0 Errors encountered.
synth_design completed successfully
synth_design: Time (s): cpu = 00:00:32 ; elapsed = 00:00:47 . Memory (MB): peak = 1752.047 ; gain = 505.586 ; free physical = 174 ; free virtual = 2189
INFO: [Common 17-1381] The checkpoint '/home/mesfin/felix/mgebyehu/test_zynq_repo/zynq_lab_ttc/firmware/projects_custem/TTC_PICOZED30/TTC_PICOZED30.runs/TTC_PICOZED_BD_ttc_picozed_interface_0_0_synth_1/TTC_PICOZED_BD_ttc_picozed_interface_0_0.dcp' has been generated.
